^C:\USERS\LKVAS\ONEDRIVE\DOCUMENTOS\VISUAL STUDIO 2015\PROJECTS\SOCKETS\CLIENTE.CPP
C:\USERS\LKVAS\ONEDRIVE\DOCUMENTOS\VISUAL STUDIO 2015\PROJECTS\SOCKETS\DEBUG\VC140.PDB
C:\USERS\LKVAS\ONEDRIVE\DOCUMENTOS\VISUAL STUDIO 2015\PROJECTS\SOCKETS\DEBUG\VC140.IDB
C:\USERS\LKVAS\ONEDRIVE\DOCUMENTOS\VISUAL STUDIO 2015\PROJECTS\SOCKETS\DEBUG\CLIENTE.OBJ
^C:\USERS\LKVAS\ONEDRIVE\DOCUMENTOS\VISUAL STUDIO 2015\PROJECTS\SOCKETS\MENSAGEM.CPP
C:\USERS\LKVAS\ONEDRIVE\DOCUMENTOS\VISUAL STUDIO 2015\PROJECTS\SOCKETS\DEBUG\VC140.PDB
C:\USERS\LKVAS\ONEDRIVE\DOCUMENTOS\VISUAL STUDIO 2015\PROJECTS\SOCKETS\DEBUG\VC140.IDB
C:\USERS\LKVAS\ONEDRIVE\DOCUMENTOS\VISUAL STUDIO 2015\PROJECTS\SOCKETS\DEBUG\MENSAGEM.OBJ
^C:\USERS\LKVAS\ONEDRIVE\DOCUMENTOS\VISUAL STUDIO 2015\PROJECTS\SOCKETS\CLIENTE.CPP|C:\USERS\LKVAS\ONEDRIVE\DOCUMENTOS\VISUAL STUDIO 2015\PROJECTS\SOCKETS\MENSAGEM.CPP
C:\USERS\LKVAS\ONEDRIVE\DOCUMENTOS\VISUAL STUDIO 2015\PROJECTS\SOCKETS\DEBUG\VC140.PDB
C:\USERS\LKVAS\ONEDRIVE\DOCUMENTOS\VISUAL STUDIO 2015\PROJECTS\SOCKETS\DEBUG\VC140.IDB
C:\USERS\LKVAS\ONEDRIVE\DOCUMENTOS\VISUAL STUDIO 2015\PROJECTS\SOCKETS\DEBUG\CLIENTE.OBJ
C:\USERS\LKVAS\ONEDRIVE\DOCUMENTOS\VISUAL STUDIO 2015\PROJECTS\SOCKETS\DEBUG\MENSAGEM.OBJ
