^C:\USERS\LKVAS\ONEDRIVE\DOCUMENTOS\VISUAL STUDIO 2015\PROJECTS\SOCKETS\DEBUG\CLIENTE.OBJ|C:\USERS\LKVAS\ONEDRIVE\DOCUMENTOS\VISUAL STUDIO 2015\PROJECTS\SOCKETS\DEBUG\MENSAGEM.OBJ
C:\USERS\LKVAS\ONEDRIVE\DOCUMENTOS\VISUAL STUDIO 2015\PROJECTS\SOCKETS\DEBUG\CLIENTE.ILK
C:\USERS\LKVAS\ONEDRIVE\DOCUMENTOS\VISUAL STUDIO 2015\PROJECTS\SOCKETS\DEBUG\CLIENTE.EXE
C:\USERS\LKVAS\ONEDRIVE\DOCUMENTOS\VISUAL STUDIO 2015\PROJECTS\SOCKETS\DEBUG\CLIENTE.PDB
